title,quantity,special_price,discount,loose_discount,type
English with Elmo (Capital Letters),1,335.00,0,0,B
Busy Bees Rhymes (A) with Activity Book,1,220.00,0,0,B
Salone Geet (Part 2),1,210.00,0,0,B
Young Learners Numbers - 1,1,395.00,0,0,B
Together with Peek-A-Boo EVS Magic (Part A Colouring + Activity),1,269.00,0,0,B
Pre Nursery Pattern Writing,1,180.00,0,0,B
Mac Book Part A,1,349.00,0,0,B
