title,quantity,special_price,discount,loose_discount,type
Skillment Aster (FS-2) Complete Set,1,2299.00,0,0,B
Cursive for Juniors (Small Letters),1,200.00,0,0,B
Aao Sikhen Swar & Vyanjan,1,260.00,0,0,B
Akshar Surbhi-2,1,180.00,0,0,B
Start with Art - B,1,375.00,0,0,B
Geet Sagar-2,1,199.00,0,0,B
